
Channel Server Log saved at Sun Nov 08 23:22:32 2015
22:13 Your depot contains 120 items.
22:13 Your last visit in Tibia: 09. Nov 2015 00:51:40 CET.
22:13 Due to your long-term loyalty to Tibia, you currently benefit from a 25 % bonus on all of your skills.
22:13 You see a golden backpack (Vol:20).
It weighs 993.00 oz.
22:13 Your depot contains 135 items.
22:15 You are poisoned.
22:15 You lose 1 hitpoint due to an attack by a wasp.
22:15 You lose 1 hitpoint due to an attack by a wasp.
22:15 You lose 1 hitpoint due to an attack by a wasp.
22:15 You lose 1 hitpoint due to an attack by a wasp.
22:15 You lose 1 hitpoint due to an attack by a wasp.
22:15 You lose 1 hitpoint due to an attack by a wasp.
22:15 You lose 1 hitpoint due to an attack by a wasp.
22:15 You lose 1 hitpoint due to an attack by a wasp.
22:15 You lose 1 hitpoint due to an attack by a wasp.
22:15 You lose 1 hitpoint due to an attack by a wasp.
22:15 You lose 1 hitpoint due to an attack by a wasp.
22:15 You lose 1 hitpoint due to an attack by a wasp.
22:15 An amazon loses 64 hitpoints due to your attack.
22:15 You lose 1 hitpoint due to an attack by a wasp.
22:15 An amazon loses 46 hitpoints due to your attack.
22:15 You gained 90 experience points.
22:15 Loot of an amazon: a dagger, a skull
22:16 You lose 1 hitpoint due to an attack by a wasp.
22:16 A valkyrie loses 54 hitpoints due to your attack.
22:16 You lose 1 hitpoint due to an attack by a valkyrie.
22:16 A valkyrie loses 136 hitpoints due to your attack.
22:16 You gained 127 experience points.
22:16 Loot of a valkyrie: nothing
22:16 You lose 1 hitpoint due to an attack by a wasp.
22:16 You lose 1 hitpoint due to an attack by a wasp.
22:17 An amazon loses 73 hitpoints due to your attack.
22:17 An amazon loses 37 hitpoints due to your attack.
22:17 You gained 90 experience points.
22:17 Loot of an amazon: a brown bread, 14 gold coins, a sabre, 2 skulls
22:21 A valkyrie loses 60 hitpoints due to your attack.
22:21 A valkyrie loses 58 hitpoints due to your attack.
22:21 You lose 1 hitpoint due to an attack by a valkyrie.
22:21 A valkyrie loses 67 hitpoints due to your attack.
22:21 A valkyrie loses 5 hitpoints due to your attack.
22:21 You gained 127 experience points.
22:21 Loot of a valkyrie: nothing
22:23 An amazon loses 64 hitpoints due to your attack.
22:23 An amazon loses 46 hitpoints due to your attack.
22:23 You gained 90 experience points.
22:23 Loot of an amazon: a girlish hair decoration, 17 gold coins, a protective charm, 2 skulls
22:23 You see a protective charm.
It weighs 1.20 oz.
22:25 A valkyrie loses 59 hitpoints due to your attack.
22:25 A valkyrie loses 131 hitpoints due to your attack.
22:25 You gained 127 experience points.
22:25 Loot of a valkyrie: 2 spears
22:28 You lose 7 hitpoints due to an attack by an amazon.
22:28 An amazon loses 56 hitpoints due to your attack.
22:28 You healed yourself for 6 hitpoints.
22:28 An amazon loses 54 hitpoints due to your attack.
22:28 You gained 90 experience points.
22:28 Loot of an amazon: a brown bread, a dagger, a sabre
22:30 A valkyrie loses 64 hitpoints due to your attack.
22:30 A valkyrie loses 125 hitpoints due to your attack.
22:30 A valkyrie loses 1 hitpoint due to your attack.
22:30 You gained 127 experience points.
22:30 Loot of a valkyrie: meat
22:33 An amazon loses 72 hitpoints due to your attack.
22:33 An amazon loses 38 hitpoints due to your attack.
22:33 You gained 90 experience points.
22:33 Loot of an amazon: a dagger, 3 gold coins, a sabre
22:33 You lose 6 hitpoints due to an attack by a valkyrie.
22:34 You lose 1 hitpoint due to an attack by a valkyrie.
22:34 You lose 1 hitpoint due to an attack by a valkyrie.
22:35 You lose 6 hitpoints due to an attack by a valkyrie.
22:35 You lose 10 hitpoints due to an attack by a valkyrie.
22:35 You lose 2 hitpoints due to an attack by a valkyrie.
22:35 You lose 9 hitpoints due to an attack by a valkyrie.
22:35 You lose 15 hitpoints due to an attack by a valkyrie.
22:36 You lose 13 hitpoints due to an attack by a valkyrie.
22:36 You lose 8 hitpoints due to an attack by a valkyrie.
22:36 You lose 9 hitpoints due to an attack by a valkyrie.
22:36 You lose 18 hitpoints due to an attack by a valkyrie.
22:37 You lose 1 hitpoint due to an attack by a valkyrie.
22:37 You lose 6 hitpoints due to an attack by a valkyrie.
22:37 You lose 3 hitpoints due to an attack by a valkyrie.
22:37 You lose 4 hitpoints due to an attack by a valkyrie.
22:37 You lose 1 hitpoint due to an attack by a valkyrie.
22:37 You lose 13 hitpoints due to an attack by a valkyrie.
22:37 You lose 9 hitpoints due to an attack by a valkyrie.
22:38 You lose 4 hitpoints due to an attack by a valkyrie.
22:38 You lose 1 hitpoint due to an attack by a valkyrie.
22:38 You lose 3 hitpoints due to an attack by an amazon.
22:38 You lose 18 hitpoints due to an attack by a valkyrie.
22:38 You lose 3 hitpoints due to an attack by a valkyrie.
22:38 You lose 9 hitpoints due to an attack by a valkyrie.
22:38 You lose 4 hitpoints due to an attack by a valkyrie.
22:38 You lose 11 hitpoints due to an attack by an amazon.
22:39 You lose 16 hitpoints due to an attack by a valkyrie.
22:39 You lose 7 hitpoints due to an attack by an amazon.
22:39 You lose 3 hitpoints due to an attack by a valkyrie.
22:39 You lose 1 hitpoint due to an attack by a valkyrie.
22:39 You lose 1 hitpoint due to an attack by a valkyrie.
22:39 You lose 11 hitpoints due to an attack by a valkyrie.
22:39 You healed yourself for 197 hitpoints.
22:39 You lose 8 hitpoints due to an attack by an amazon.
22:39 A valkyrie loses 51 hitpoints due to your attack.
22:39 A valkyrie loses 51 hitpoints due to your attack.
22:40 A valkyrie loses 60 hitpoints due to your attack.
22:40 A valkyrie loses 28 hitpoints due to your attack.
22:40 You gained 127 experience points.
22:40 Loot of a valkyrie: nothing
22:40 An amazon loses 64 hitpoints due to your attack.
22:40 An amazon loses 46 hitpoints due to your attack.
22:40 You gained 90 experience points.
22:40 Loot of an amazon: 5 gold coins, a skull
22:43 An amazon loses 64 hitpoints due to your attack.
22:43 An amazon loses 46 hitpoints due to your attack.
22:43 You gained 90 experience points.
22:43 Loot of an amazon: a dagger, a skull
22:45 You lose 5 hitpoints due to an attack by a valkyrie.
22:45 You lose 13 hitpoints due to an attack by a valkyrie.
22:45 You lose 3 hitpoints due to an attack by a valkyrie.
22:45 You lose 12 hitpoints due to an attack by a valkyrie.
22:45 You lose 1 hitpoint due to an attack by a valkyrie.
22:45 You lose 6 hitpoints due to an attack by a valkyrie.
22:45 You lose 4 hitpoints due to an attack by a valkyrie.
22:45 You lose 2 hitpoints due to an attack by a valkyrie.
22:45 You lose 6 hitpoints due to an attack by a valkyrie.
22:46 You lose 3 hitpoints due to an attack by a valkyrie.
22:46 You lose 3 hitpoints due to an attack by a valkyrie.
22:46 You lose 1 hitpoint due to an attack by a valkyrie.
22:46 You lose 1 hitpoint due to an attack by a valkyrie.
22:46 You lose 4 hitpoints due to an attack by a valkyrie.
22:46 You lose 4 hitpoints due to an attack by a valkyrie.
22:47 You lose 9 hitpoints due to an attack by a valkyrie.
22:47 A valkyrie loses 51 hitpoints due to your attack.
22:47 A valkyrie loses 139 hitpoints due to your attack.
22:47 You gained 127 experience points.
22:47 Loot of a valkyrie: meat
22:47 You healed yourself for 66 hitpoints.
22:48 An amazon loses 70 hitpoints due to your attack.
22:48 An amazon loses 40 hitpoints due to your attack.
22:48 You gained 90 experience points.
22:48 Loot of an amazon: a dagger, a skull
22:50 A valkyrie loses 59 hitpoints due to your attack.
22:50 You lose 10 hitpoints due to an attack by a valkyrie.
22:50 A valkyrie loses 131 hitpoints due to your attack.
22:50 You gained 127 experience points.
22:50 Loot of a valkyrie: meat, a spear
22:51 An amazon loses 58 hitpoints due to your attack.
22:51 An amazon loses 52 hitpoints due to your attack.
22:51 You gained 90 experience points.
22:51 Loot of an amazon: a dagger
22:54 A valkyrie loses 58 hitpoints due to your attack.
22:54 A valkyrie loses 132 hitpoints due to your attack.
22:54 You gained 127 experience points.
22:54 Loot of a valkyrie: 2 gold coins, meat
22:57 A valkyrie loses 62 hitpoints due to your attack.
22:57 A valkyrie loses 125 hitpoints due to your attack.
22:57 A valkyrie loses 3 hitpoints due to your attack.
22:57 You gained 127 experience points.
22:57 Loot of a valkyrie: a hunting spear
23:00 An amazon loses 66 hitpoints due to your attack.
23:00 An amazon loses 44 hitpoints due to your attack.
23:00 You gained 90 experience points.
23:00 Loot of an amazon: a dagger, 11 gold coins, 2 skulls
23:01 A valkyrie loses 53 hitpoints due to your attack.
23:01 A valkyrie loses 137 hitpoints due to your attack.
23:01 You gained 127 experience points.
23:01 Loot of a valkyrie: a chain armor, meat
23:03 An amazon loses 110 hitpoints due to your attack.
23:03 You gained 90 experience points.
23:03 Loot of an amazon: a dagger, 3 gold coins
23:03 An amazon loses 68 hitpoints due to your attack.
23:03 An amazon loses 42 hitpoints due to your attack.
23:03 You gained 90 experience points.
23:03 Loot of an amazon: a brown bread, a dagger, a protective charm, a skull
23:05 You lose 20 hitpoints.
23:05 You healed yourself for 19 hitpoints.
23:07 An amazon loses 73 hitpoints due to your attack.
23:07 An amazon loses 37 hitpoints due to your attack.
23:07 You gained 90 experience points.
23:07 Loot of an amazon: a dagger, a sabre, a skull
23:09 A valkyrie loses 65 hitpoints due to your attack.
23:09 A valkyrie loses 125 hitpoints due to your attack.
23:09 You gained 127 experience points.
23:09 Loot of a valkyrie: meat
23:12 An amazon loses 68 hitpoints due to your attack.
23:12 An amazon loses 42 hitpoints due to your attack.
23:12 You gained 90 experience points.
23:12 Loot of an amazon: a dagger, a skull
23:17 An amazon loses 69 hitpoints due to your attack.
23:17 An amazon loses 41 hitpoints due to your attack.
23:17 You gained 90 experience points.
23:17 Loot of an amazon: a dagger, 15 gold coins
23:18 You lose 6 hitpoints due to an attack by a leaf golem.